Importing data through RStudio’s GUI
…
--

Well, this doesn't seem to have worked!  Let's look at the dataset…

---
## Tube stations data

```r
tube
```

```
## # A tibble: 8 x 2
##   `Station; Line; Zone; Opened; Number of passengers (mi~ `2019)`
##   <chr>                                                     <dbl>
## 1 Russell Square; Piccadilly; 1; 15-DEC-1906; 12.27            NA
## 2 Heathrow Terminals 1                                          2
## 3 Kingsbury; Jubilee; 4; 10-DEC-1932; 4.55                     NA
## 4 Tooting Bec; Northern; 3; 13-SEP-1926; 7.67                  NA
## 5 Warwick Avenue; Bakerloo; 2; 31-JAN-1915; 4.00               NA
## 6 Upminster Bridge; District; 6; 17-DEC-1932; 1.11             NA
## # ... with 2 more rows
```
…
