Feature engineering
…
```
## Warning: glm.fit: fitted probabilities numerically 0 or 1 occurred
```

---

.small[

```r
tidy(email_fit) %>% print(n = 31)
```

```
## # A tibble: 32 x 5
##    term               estimate  std.error statistic  p.value
##    <chr>                 <dbl>      <dbl>     <dbl>    <dbl>
##  1 (Intercept)        -0.831      0.257    -3.23    1.24e- 3
##  2 image              -1.62       0.942    -1.72    8.46e- 2
##  3 viagra              2.41     300.        0.00804 9.94e- 1
##  4 num_char            0.0469     0.0244    1.92    5.47e- 2
##  5 line_breaks        -0.00509    0.00138  -3.68    2.31e- 4
##  6 exclaim_subj       -0.210      0.277    -0.758   4.49e- 1
##  7 exclaim_mess        0.00882    0.00186   4.74    2.10e- 6
##  8 to_multiple_X1     -2.58       0.354    -7.30    2.96e-13
##  9 cc_X.1.68.         -0.297      0.491    -0.605   5.45e- 1
## 10 attach_X.1.21.      2.03       0.368     5.52    3.42e- 8
## 11 dollar_X.1.64.      0.226      0.216     1.04    2.97e- 1
## 12 winner_yes          2.16       0.429     5.03    4.98e- 7
## 13 inherit_X.1.5.    -10.5     1244.       -0.00845 9.93e- 1
## 14 inherit_X.5.10.     2.53       1.45      1.75    8.09e- 2
## 15 password_X.1.5.    -1.73       0.748    -2.31    2.07e- 2
## 16 password_X.5.10.  -13.5      786.       -0.0172  9.86e- 1
## 17 password_X.10.20. -14.9     1324.       -0.0112  9.91e- 1
## 18 password_X.20.22. -15.0     1697.       -0.00882 9.93e- 1
## 19 format_X1          -0.911      0.159    -5.75    9.00e- 9
## 20 re_subj_X1         -2.89       0.437    -6.63    3.38e-11
## 21 urgent_subj_X1      3.50       1.07      3.26    1.12e- 3
## 22 number_small       -0.882      0.167    -5.29    1.22e- 7
## 23 number_big         -0.163      0.249    -0.655   5.12e- 1
## 24 time_dow_Mon       -0.107      0.305    -0.352   7.25e- 1
## 25 time_dow_Tue        0.179      0.277     0.646   5.18e- 1
## 26 time_dow_Wed       -0.0727     0.276    -0.264   7.92e- 1
## 27 time_dow_Thu       -0.124      0.283    -0.440   6.60e- 1
## 28 time_dow_Fri        0.00940    0.281     0.0334  9.73e- 1
## 29 time_dow_Sat        0.220      0.296     0.742   4.58e- 1
## 30 time_month_Feb      0.771      0.180     4.28    1.86e- 5
## 31 time_month_Mar      0.555      0.180     3.08    2.10e- 3
## # ... with 1 more row
```
…
```r
email_pred <- predict(email_fit, test_data, type = "prob") %>% 
  bind_cols(test_data) 
```

```
## Warning: There are new levels in a factor: NA
```

```r
email_pred
```

```
## # A tibble: 785 x 23
##   .pred_0  .pred_1 spam  to_multiple from     cc sent_email
##     <dbl>    <dbl> <fct> <fct>       <fct> <int> <fct>     
## 1   0.995 0.00529  0     1           1         0 1         
## 2   0.999 0.00146  0     0           1         1 1         
## 3   0.969 0.0307   0     0           1         0 0         
## 4   0.999 0.000744 0     0           1         1 0         
## 5   0.994 0.00610  0     0           1         4 0         
## 6   0.870 0.130    0     0           1         0 0         
## # ... with 779 more rows, and 16 more variables: time <dttm>,
## #   image <dbl>, attach <dbl>, dollar <dbl>, winner <fct>,
## #   inherit <dbl>, viagra <dbl>, password <dbl>, num_char <dbl>,
## #   line_breaks <int>, format <fct>, re_subj <fct>,
## #   exclaim_subj <dbl>, urgent_subj <fct>, exclaim_mess <dbl>,
## #   number <fct>
```
…
